{
	"type": "Live2D Model Setting",
	"name": "harumi",
	"model": "harumi.moc",
	"textures": [
		"harumi.1024/texture_00.png"
	],
	"physics": "harumi.physics.json",
	"hit_areas":
	[
		{"name":"body","id":"D_REF.PT_SOBA_01"}
	],
	"layout":
	{
		"center_x":0,
		"y":0.9,
		"width":1.7
	},
	"motions":
	{
		"idle":
		[
			{"file":"motions/idle_01.mtn" ,"fade_in":500, "fade_out":200},
			{"file":"motions/idle_02.mtn" ,"fade_in":500, "fade_out":200},
			{"file":"motions/idle_03.mtn" ,"fade_in":500, "fade_out":200}
        ],
       "shake":
		[
			{ "file":"motions/shake_01.mtn","fade_in":500 ,"fade_out":0},
			{ "file":"motions/shake_02.mtn","fade_in":500 ,"fade_out":0}
		],
		"tap_body":
		[
			{"file":"motions/touch_01.mtn"	,"fade_in":500,"fade_out":0},
			{"file":"motions/touch_02.mtn"	,"fade_in":500,"fade_out":0},
            {"file":"motions/touch_03.mtn"	,"fade_in":500,"fade_out":0}
		]
	}
}